Assignment 5
…
mutations

## # A tibble: 17,272 x 15
##    Patient_ID Chromosome Start_Position End_Position Strand
##    <chr>      <chr>               <dbl>        <dbl> <chr> 
##  1 MTS-T0058  17                7579344      7579345 +     
##  2 MTS-T0058  17                7579346      7579347 +     
##  3 MTS-T0058  6               168299111    168299111 +     
##  4 MTS-T0058  22               29999995     29999995 +     
##  5 MTS-T0059  2               198288682    198288682 +     
##  6 MTS-T0059  6                86195125     86195125 +     
##  7 MTS-T0059  7                55241717     55241717 +     
##  8 MTS-T0059  10                6556986      6556986 +     
##  9 MTS-T0059  11               62300529     62300529 +     
## 10 MTS-T0059  15               74912475     74912475 +     
## #  with 17,262 more rows, and 10 more variables: Reference_Allele <chr>,
## #   Tumor_Seq_Allele1 <chr>, Tumor_Seq_Allele2 <chr>, Variant_Type <chr>,
## #   Variant_Classification <chr>, Gene <chr>, Codon <dbl>, HGVSc <chr>,
## #   HGVSp <chr>, HGVSp_Short <chr>
…
3. Find mutation hotspots in PIK3CA

PIK3CA and TP53 are the most frequently mutated genes in breast cancers. But do the mutations occur randomly within these genes or are they usually found in specific locations?

Find the most frequently mutated codons in PIK3CA.

mutations %>%
  filter(Gene == "PIK3CA") %>%
  count(Codon) %>%
  arrange(desc(n))

## # A tibble: 88 x 2
##    Codon     n
##    <dbl> <int>
##  1  1047   471
##  2   545   192
##  3   542   101
##  4   345    64
##  5   726    28
##  6   546    26
##  7   420    19
##  8   111    13
##  9  1043    12
## 10   108    10
## #  with 78 more rows
…
