Assignment 6
…
This weeks involves transforming two data sets in order to ask a specific question of each. The first is a more complete set of data on the number of new tuberculosis cases each year from 1980 to 2013 in 219 countries, taken from the World Health Organization Global Tuberculosis Report.

For the second real world example we return to the METABRIC data set and introduce the other set of assay data obtained as part of the original 2012 study that concerns genomic copy number. Well transform the copy number data downloaded from cBioPortal so that we can look at the copy number states for some of our favourite genes and then combine that with the expression data to see how copy number influences gene expression.

The clinical data, gene expression values and mutation data were all downloaded from cBioPortal.

library(tidyverse)

1. Tidy the WHO tuberculosis data set

In this weeks materials we demonstrated the restructuring of different representations of a very small subset of the WHO tuberculosis data set (tables 1 to 4a and b). The more complete data set is also available in its original format in another data frame available as part of the tidyr package, named who.

who

## # A tibble: 7,240 x 60
##    country iso2  iso3   year new_sp_m014 new_sp_m1524 new_sp_m2534
##    <chr>   <chr> <chr> <int>       <int>        <int>        <int>
##  1 Afghan AF    AFG    1980          NA           NA           NA
##  2 Afghan AF    AFG    1981          NA           NA           NA
##  3 Afghan AF    AFG    1982          NA           NA           NA
##  4 Afghan AF    AFG    1983          NA           NA           NA
##  5 Afghan AF    AFG    1984          NA           NA           NA
##  6 Afghan AF    AFG    1985          NA           NA           NA
##  7 Afghan AF    AFG    1986          NA           NA           NA
##  8 Afghan AF    AFG    1987          NA           NA           NA
##  9 Afghan AF    AFG    1988          NA           NA           NA
## 10 Afghan AF    AFG    1989          NA           NA           NA
## #  with 7,230 more rows, and 53 more variables: new_sp_m3544 <int>,
## #   new_sp_m4554 <int>, new_sp_m5564 <int>, new_sp_m65 <int>,
## #   new_sp_f014 <int>, new_sp_f1524 <int>, new_sp_f2534 <int>,
## #   new_sp_f3544 <int>, new_sp_f4554 <int>, new_sp_f5564 <int>,
## #   new_sp_f65 <int>, new_sn_m014 <int>, new_sn_m1524 <int>,
## #   new_sn_m2534 <int>, new_sn_m3544 <int>, new_sn_m4554 <int>,
## #   new_sn_m5564 <int>, new_sn_m65 <int>, new_sn_f014 <int>,
## #   new_sn_f1524 <int>, new_sn_f2534 <int>, new_sn_f3544 <int>,
## #   new_sn_f4554 <int>, new_sn_f5564 <int>, new_sn_f65 <int>,
…
# convert the age group into a factor and change the levels to a more
# human-readable form
# (could also use factor or recode_factor for this)
who_tidy <- mutate(who_tidy, age_group = fct_recode(age_group, "0-14" = "014", "15-24" = "1524", "25-34" = "2534", "35-44" = "3544", "45-54" = "4554", "55-64" = "5564", "65+" = "65"))

who_tidy

## # A tibble: 76,046 x 8
##    country     iso2  iso3   year diagnosis gender age_group cases
##    <chr>       <chr> <chr> <int> <chr>     <chr>  <fct>     <int>
##  1 Afghanistan AF    AFG    1997 sp        m      0-14          0
##  2 Afghanistan AF    AFG    1997 sp        m      15-24        10
##  3 Afghanistan AF    AFG    1997 sp        m      25-34         6
##  4 Afghanistan AF    AFG    1997 sp        m      35-44         3
##  5 Afghanistan AF    AFG    1997 sp        m      45-54         5
##  6 Afghanistan AF    AFG    1997 sp        m      55-64         2
##  7 Afghanistan AF    AFG    1997 sp        m      65+           0
##  8 Afghanistan AF    AFG    1997 sp        f      0-14          5
##  9 Afghanistan AF    AFG    1997 sp        f      15-24        38
## 10 Afghanistan AF    AFG    1997 sp        f      25-34        36
## #  with 76,036 more rows
…
4. Relate METABRIC copy number and expression data

For this exercise well read in the METABRIC mRNA expression data and copy number states into separate data frames. The aim is to see how the gene expression is affected by the copy number state of various genes through a series of box plot.

expression <- read_tsv("metabric_mrna_expression.txt")

The expression data is in a matrix-like format with a row for each sample and a column for each gene. This is the format used when downloading data from cBioPortal after selecting a set of genes.

expression

## # A tibble: 2,509 x 10
##    STUDY_ID      SAMPLE_ID  ESR1 ERBB2   PGR  TP53 PIK3CA GATA3 FOXA1  MLPH
##    <chr>         <chr>     <dbl> <dbl> <dbl> <dbl>  <dbl> <dbl> <dbl> <dbl>
##  1 brca_metabric MB-0000    8.93  9.33  5.68  6.34   5.70  6.93  7.95  9.73
##  2 brca_metabric MB-0002   10.0   9.73  7.51  6.19   5.76 11.3  11.8  12.5 
##  3 brca_metabric MB-0005   10.0   9.73  7.38  6.40   6.75  9.29 11.7  10.3 
##  4 brca_metabric MB-0006   10.4  10.3   6.82  6.87   7.22  8.67 11.9  10.5 
##  5 brca_metabric MB-0008   11.3   9.96  7.33  6.34   5.82  9.72 11.6  12.2 
##  6 brca_metabric MB-0010   11.2   9.74  5.95  5.42   6.12  9.79 12.1  11.4 
##  7 brca_metabric MB-0014   10.8   9.28  7.72  5.99   7.48  8.37 11.5  10.8 
##  8 brca_metabric MB-0020   NA    NA    NA    NA     NA    NA    NA    NA   
##  9 brca_metabric MB-0022   10.4   8.61  5.59  6.17   7.59  7.87 10.7   9.95
## 10 brca_metabric MB-0025   NA    NA    NA    NA     NA    NA    NA    NA   
## #  with 2,499 more rows

Convert this data frame into a tidy format with a row-per-sample-per-gene. Remove the rather uninteresting STUDY_ID column and filter out missing expression values (for those samples that werent assayed).

expression <- expression %>%
  pivot_longer(ESR1:MLPH, names_to = "Gene", values_to = "Expression", values_drop_na = TRUE) %>%
  select(-STUDY_ID)
expression

## # A tibble: 15,232 x 3
##    SAMPLE_ID Gene   Expression
##    <chr>     <chr>       <dbl>
##  1 MB-0000   ESR1         8.93
##  2 MB-0000   ERBB2        9.33
##  3 MB-0000   PGR          5.68
##  4 MB-0000   TP53         6.34
##  5 MB-0000   PIK3CA       5.70
##  6 MB-0000   GATA3        6.93
##  7 MB-0000   FOXA1        7.95
##  8 MB-0000   MLPH         9.73
##  9 MB-0002   ESR1        10.0 
## 10 MB-0002   ERBB2        9.73
## #  with 15,222 more rows
…
# can instead select those columns not to use
# we've also relabeled the copy number state levels (could instead use
# fct_recode or recode_factor)
copy_number_states <- copy_number_states %>%
  select(-Entrez_Gene_Id) %>%
  pivot_longer(-Hugo_Symbol, names_to = "Sample", values_to = "Copy_number_state") %>%
  mutate(Copy_number_state = factor(Copy_number_state, levels = c("-2", "-1", "0", "1", "2"), labels = c("deletion", "loss", "neutral", "gain", "amplification")))

copy_number_states

## # A tibble: 17,384 x 3
##    Hugo_Symbol Sample  Copy_number_state
##    <chr>       <chr>   <fct>            
##  1 ERBB2       MB-0000 neutral          
##  2 ERBB2       MB-0039 neutral          
##  3 ERBB2       MB-0045 neutral          
##  4 ERBB2       MB-0046 amplification    
##  5 ERBB2       MB-0048 amplification    
##  6 ERBB2       MB-0050 loss             
##  7 ERBB2       MB-0053 neutral          
##  8 ERBB2       MB-0062 loss             
##  9 ERBB2       MB-0064 neutral          
## 10 ERBB2       MB-0066 neutral          
## #  with 17,374 more rows
…
Create a combined data set containing the expression value and copy number state for each patient and gene pairing. The data frame should contain the columns Sample, Gene, Expression and Copy_number_state.

combined <- expression %>%
  rename(Sample = SAMPLE_ID) %>%
  inner_join(copy_number_states, by = c("Sample", "Gene" = "Hugo_Symbol"))
combined

## # A tibble: 15,232 x 4
##    Sample  Gene   Expression Copy_number_state
##    <chr>   <chr>       <dbl> <fct>            
##  1 MB-0000 ESR1         8.93 neutral          
##  2 MB-0000 ERBB2        9.33 neutral          
##  3 MB-0000 PGR          5.68 neutral          
##  4 MB-0000 TP53         6.34 neutral          
##  5 MB-0000 PIK3CA       5.70 neutral          
##  6 MB-0000 GATA3        6.93 neutral          
##  7 MB-0000 FOXA1        7.95 neutral          
##  8 MB-0000 MLPH         9.73 neutral          
##  9 MB-0002 ESR1        10.0  loss             
## 10 MB-0002 ERBB2        9.73 loss             
## #  with 15,222 more rows
…
## # A tibble: 4 x 2
##   ERBB2_copy_number_state     n
##   <fct>                   <int>
## 1 loss                      378
## 2 neutral                  1270
## 3 gain                      183
## 4 amplification             342

Join the ERBB2 copy number state table to the table we created before identifying which patient has an AKT1 mutation. The combined data frame should only contain entries for patients that have been sequenced and for which copy number data are available.

erbb2_akt1_association <- inner_join(cases_sequenced, erbb2_copy_number_states, by = c("Patient_ID" = "Sample"))
erbb2_akt1_association

## # A tibble: 2,097 x 3
##    Patient_ID AKT1_mutated ERBB2_copy_number_state
##    <chr>      <lgl>        <fct>                  
##  1 MB-0000    FALSE        neutral                
##  2 MB-0002    FALSE        loss                   
##  3 MB-0005    FALSE        neutral                
##  4 MB-0006    FALSE        neutral                
##  5 MB-0008    FALSE        neutral                
##  6 MB-0010    FALSE        loss                   
##  7 MB-0014    FALSE        neutral                
##  8 MB-0022    FALSE        loss                   
##  9 MB-0025    FALSE        amplification          
## 10 MB-0028    FALSE        gain                   
## #  with 2,087 more rows
…
Does this reflect the observation of mutual exclusivity of ERBB2 amplification and AKT1 mutations?

Create a logical column called ERBB2_amplified indicated which patient samples have amplifications (copy number state 2) in ERBB2.

erbb2_akt1_association <- mutate(erbb2_akt1_association, ERBB2_amplified = ERBB2_copy_number_state == "amplification")
erbb2_akt1_association

## # A tibble: 2,097 x 4
##    Patient_ID AKT1_mutated ERBB2_copy_number_state ERBB2_amplified
##    <chr>      <lgl>        <fct>                   <lgl>          
##  1 MB-0000    FALSE        neutral                 FALSE          
##  2 MB-0002    FALSE        loss                    FALSE          
##  3 MB-0005    FALSE        neutral                 FALSE          
##  4 MB-0006    FALSE        neutral                 FALSE          
##  5 MB-0008    FALSE        neutral                 FALSE          
##  6 MB-0010    FALSE        loss                    FALSE          
##  7 MB-0014    FALSE        neutral                 FALSE          
##  8 MB-0022    FALSE        loss                    FALSE          
##  9 MB-0025    FALSE        amplification           TRUE           
## 10 MB-0028    FALSE        gain                    FALSE          
## #  with 2,087 more rows
…
