Assignment 6
…
This weeks involves transforming two data sets in order to ask a specific question of each. The first is a more complete set of data on the number of new tuberculosis cases each year from 1980 to 2013 in 219 countries, taken from the World Health Organization Global Tuberculosis Report.

For the second real world example we return to the METABRIC data set and introduce the other set of assay data obtained as part of the original 2012 study that concerns genomic copy number. Well transform the copy number data downloaded from cBioPortal so that we can look at the copy number states for some of our favourite genes and then combine that with the expression data to see how copy number influences gene expression.

The clinical data, gene expression values and mutation data were all downloaded from cBioPortal.

library(tidyverse)

1. Tidy the WHO tuberculosis data set

In this weeks materials we demonstrated the restructuring of different representations of a very small subset of the WHO tuberculosis data set (tables 1 to 4a and b). The more complete data set is also available in its original format in another data frame available as part of the tidyr package, named who.

who

## # A tibble: 7,240 x 60
##    country iso2  iso3   year new_sp_m014 new_sp_m1524 new_sp_m2534
##    <chr>   <chr> <chr> <int>       <int>        <int>        <int>
##  1 Afghan AF    AFG    1980          NA           NA           NA
##  2 Afghan AF    AFG    1981          NA           NA           NA
##  3 Afghan AF    AFG    1982          NA           NA           NA
##  4 Afghan AF    AFG    1983          NA           NA           NA
##  5 Afghan AF    AFG    1984          NA           NA           NA
##  6 Afghan AF    AFG    1985          NA           NA           NA
##  7 Afghan AF    AFG    1986          NA           NA           NA
##  8 Afghan AF    AFG    1987          NA           NA           NA
##  9 Afghan AF    AFG    1988          NA           NA           NA
## 10 Afghan AF    AFG    1989          NA           NA           NA
## #  with 7,230 more rows, and 53 more variables: new_sp_m3544 <int>,
## #   new_sp_m4554 <int>, new_sp_m5564 <int>, new_sp_m65 <int>,
## #   new_sp_f014 <int>, new_sp_f1524 <int>, new_sp_f2534 <int>,
## #   new_sp_f3544 <int>, new_sp_f4554 <int>, new_sp_f5564 <int>,
## #   new_sp_f65 <int>, new_sn_m014 <int>, new_sn_m1524 <int>,
## #   new_sn_m2534 <int>, new_sn_m3544 <int>, new_sn_m4554 <int>,
## #   new_sn_m5564 <int>, new_sn_m65 <int>, new_sn_f014 <int>,
## #   new_sn_f1524 <int>, new_sn_f2534 <int>, new_sn_f3544 <int>,
## #   new_sn_f4554 <int>, new_sn_f5564 <int>, new_sn_f65 <int>,
…
Why isnt this data set tidy and what kinds of analysis are not straightforward with the data in this format?

Transform the data into a tidy format.

Columns new_sp_m014 to newrel_f65 are values for a compound variable, i.e.multiple variables joined together - the restructured data frame should have columns for each of the separated values in these column headings.

Remove all rows with missing values for the number of tuberculosis cases.

who %>%
  pivot_longer(starts_with("new"), names_to = "group", values_to = "cases", values_drop_na = TRUE) %>%
  mutate(group = str_remove(group, "new")) %>%
  count(group)

## # A tibble: 56 x 2
##    group         n
##    <chr>     <int>
##  1 _ep_f014   1032
##  2 _ep_f1524  1021
##  3 _ep_f2534  1021
##  4 _ep_f3544  1021
##  5 _ep_f4554  1017
##  6 _ep_f5564  1017
##  7 _ep_f65    1014
##  8 _ep_m014   1038
##  9 _ep_m1524  1026
## 10 _ep_m2534  1020
## #  with 46 more rows
…
# remove missing values as part of the pivot and use regular expression magic
who_tidy <- who %>%
  pivot_longer(starts_with("new"), names_to = "group", values_to = "cases", values_drop_na = TRUE) %>%
  mutate(group = str_remove(group, "^new_?")) %>%
  separate(group, into = c("diagnosis", "group"), sep = "_") %>%
  separate(group, into = c("gender", "age_group"), sep = 1)

who_tidy

## # A tibble: 76,046 x 8
##    country     iso2  iso3   year diagnosis gender age_group cases
##    <chr>       <chr> <chr> <int> <chr>     <chr>  <chr>     <int>
##  1 Afghanistan AF    AFG    1997 sp        m      014           0
##  2 Afghanistan AF    AFG    1997 sp        m      1524         10
##  3 Afghanistan AF    AFG    1997 sp        m      2534          6
##  4 Afghanistan AF    AFG    1997 sp        m      3544          3
##  5 Afghanistan AF    AFG    1997 sp        m      4554          5
##  6 Afghanistan AF    AFG    1997 sp        m      5564          2
##  7 Afghanistan AF    AFG    1997 sp        m      65            0
##  8 Afghanistan AF    AFG    1997 sp        f      014           5
##  9 Afghanistan AF    AFG    1997 sp        f      1524         38
## 10 Afghanistan AF    AFG    1997 sp        f      2534         36
## #  with 76,036 more rows
…
4. Relate METABRIC copy number and expression data

For this exercise well read in the METABRIC mRNA expression data and copy number states into separate data frames. The aim is to see how the gene expression is affected by the copy number state of various genes through a series of box plot.

expression <- read_tsv("metabric_mrna_expression.txt")

The expression data is in a matrix-like format with a row for each sample and a column for each gene. This is the format used when downloading data from cBioPortal after selecting a set of genes.

expression

## # A tibble: 2,509 x 10
##    STUDY_ID      SAMPLE_ID  ESR1 ERBB2   PGR  TP53 PIK3CA GATA3 FOXA1  MLPH
##    <chr>         <chr>     <dbl> <dbl> <dbl> <dbl>  <dbl> <dbl> <dbl> <dbl>
##  1 brca_metabric MB-0000    8.93  9.33  5.68  6.34   5.70  6.93  7.95  9.73
##  2 brca_metabric MB-0002   10.0   9.73  7.51  6.19   5.76 11.3  11.8  12.5 
##  3 brca_metabric MB-0005   10.0   9.73  7.38  6.40   6.75  9.29 11.7  10.3 
##  4 brca_metabric MB-0006   10.4  10.3   6.82  6.87   7.22  8.67 11.9  10.5 
##  5 brca_metabric MB-0008   11.3   9.96  7.33  6.34   5.82  9.72 11.6  12.2 
##  6 brca_metabric MB-0010   11.2   9.74  5.95  5.42   6.12  9.79 12.1  11.4 
##  7 brca_metabric MB-0014   10.8   9.28  7.72  5.99   7.48  8.37 11.5  10.8 
##  8 brca_metabric MB-0020   NA    NA    NA    NA     NA    NA    NA    NA   
##  9 brca_metabric MB-0022   10.4   8.61  5.59  6.17   7.59  7.87 10.7   9.95
## 10 brca_metabric MB-0025   NA    NA    NA    NA     NA    NA    NA    NA   
## #  with 2,499 more rows

Convert this data frame into a tidy format with a row-per-sample-per-gene. Remove the rather uninteresting STUDY_ID column and filter out missing expression values (for those samples that werent assayed).

expression <- expression %>%
  pivot_longer(ESR1:MLPH, names_to = "Gene", values_to = "Expression", values_drop_na = TRUE) %>%
  select(-STUDY_ID)
expression

## # A tibble: 15,232 x 3
##    SAMPLE_ID Gene   Expression
##    <chr>     <chr>       <dbl>
##  1 MB-0000   ESR1         8.93
##  2 MB-0000   ERBB2        9.33
##  3 MB-0000   PGR          5.68
##  4 MB-0000   TP53         6.34
##  5 MB-0000   PIK3CA       5.70
##  6 MB-0000   GATA3        6.93
##  7 MB-0000   FOXA1        7.95
##  8 MB-0000   MLPH         9.73
##  9 MB-0002   ESR1        10.0 
## 10 MB-0002   ERBB2        9.73
## #  with 15,222 more rows
…
0 neutral

1 gain

2 amplification

Remove the Entrez_Gene_id column and convert the copy number state variable into a factor.

copy_number_states <- copy_number_states %>%
  pivot_longer(3:2175, names_to = "Sample", values_to = "Copy_number_state") %>%
  select(-Entrez_Gene_Id) %>%
  mutate(Copy_number_state = as_factor(Copy_number_state))
copy_number_states

## # A tibble: 17,384 x 3
##    Hugo_Symbol Sample  Copy_number_state
##    <chr>       <chr>   <fct>            
##  1 ERBB2       MB-0000 0                
##  2 ERBB2       MB-0039 0                
##  3 ERBB2       MB-0045 0                
##  4 ERBB2       MB-0046 2                
##  5 ERBB2       MB-0048 2                
##  6 ERBB2       MB-0050 -1               
##  7 ERBB2       MB-0053 0                
##  8 ERBB2       MB-0062 -1               
##  9 ERBB2       MB-0064 0                
## 10 ERBB2       MB-0066 0                
## #  with 17,374 more rows
…
Create a combined data set containing the ER status, expression value and copy number state for each patient and gene pairing. The data frame should contain the columns Sample, ER_status, Gene, Expression and Copy_number_state.

combined <- expression %>%
  rename(Sample = SAMPLE_ID) %>%
  inner_join(copy_number_states, by = c("Sample", "Gene" = "Hugo_Symbol"))
combined

## # A tibble: 15,232 x 4
##    Sample  Gene   Expression Copy_number_state
##    <chr>   <chr>       <dbl> <fct>            
##  1 MB-0000 ESR1         8.93 0                
##  2 MB-0000 ERBB2        9.33 0                
##  3 MB-0000 PGR          5.68 0                
##  4 MB-0000 TP53         6.34 0                
##  5 MB-0000 PIK3CA       5.70 0                
##  6 MB-0000 GATA3        6.93 0                
##  7 MB-0000 FOXA1        7.95 0                
##  8 MB-0000 MLPH         9.73 0                
##  9 MB-0002 ESR1        10.0  -1               
## 10 MB-0002 ERBB2        9.73 -1               
## #  with 15,222 more rows
…
## # A tibble: 4 x 2
##   ERBB2_copy_number_state     n
##   <fct>                   <int>
## 1 -1                        378
## 2 0                        1270
## 3 1                         183
## 4 2                         342

Join the ERBB2 copy number state table to the table we created before identifying which patient has an AKT1 mutation. The combined data frame should only contain entries for patients that have been sequenced and for which copy number data are available.

erbb2_akt1_association <- inner_join(cases_sequenced, erbb2_copy_number_states, by = c("Patient_ID" = "Sample"))
erbb2_akt1_association

## # A tibble: 2,097 x 3
##    Patient_ID AKT1_mutated ERBB2_copy_number_state
##    <chr>      <lgl>        <fct>                  
##  1 MB-0000    FALSE        0                      
##  2 MB-0002    FALSE        -1                     
##  3 MB-0005    FALSE        0                      
##  4 MB-0006    FALSE        0                      
##  5 MB-0008    FALSE        0                      
##  6 MB-0010    FALSE        -1                     
##  7 MB-0014    FALSE        0                      
##  8 MB-0022    FALSE        -1                     
##  9 MB-0025    FALSE        2                      
## 10 MB-0028    FALSE        1                      
## #  with 2,087 more rows
…
Does this reflect the observation of mutual exclusivity of ERBB2 amplification and AKT1 mutations?

Create a logical column called ERBB2_amplified indicated which patient samples have amplifications (copy number state 2) in ERBB2.

erbb2_akt1_association <- mutate(erbb2_akt1_association, ERBB2_amplified = ERBB2_copy_number_state == 2)
erbb2_akt1_association

## # A tibble: 2,097 x 4
##    Patient_ID AKT1_mutated ERBB2_copy_number_state ERBB2_amplified
##    <chr>      <lgl>        <fct>                   <lgl>          
##  1 MB-0000    FALSE        0                       FALSE          
##  2 MB-0002    FALSE        -1                      FALSE          
##  3 MB-0005    FALSE        0                       FALSE          
##  4 MB-0006    FALSE        0                       FALSE          
##  5 MB-0008    FALSE        0                       FALSE          
##  6 MB-0010    FALSE        -1                      FALSE          
##  7 MB-0014    FALSE        0                       FALSE          
##  8 MB-0022    FALSE        -1                      FALSE          
##  9 MB-0025    FALSE        2                       TRUE           
## 10 MB-0028    FALSE        1                       FALSE          
## #  with 2,087 more rows
…
