Assignment 3
…
Search for and download the UK Government data for the Sunday briefing (26 April 2020).

Hint: use the search terms uk government coronavirus press conference data.

Load the Apple Mobility sheet into a tibble in R. You will need to specify the worksheet and a few other arguments as the data are not in the most convenient format (see how the transport use worksheet was read into R in the course materials).

library(readxl)
apple_mobility <- read_excel("2020-04-26_COVID-19_Press_Conference_Data.xlsx",
                             sheet = "Apple Mobility",
                             col_names = c("date", "transport_type", "percentage", "rolling_average"),
                             skip = 4,
                             n_max = 309)
apple_mobility

## # A tibble: 309 x 4
##    date                transport_type   percentage rolling_average
##    <dttm>              <chr>                 <dbl>           <dbl>
##  1 2020-01-13 00:00:00 Driving                100               NA
##  2 2020-01-13 00:00:00 Public Transport       100               NA
##  3 2020-01-13 00:00:00 Walking                100               NA
##  4 2020-01-14 00:00:00 Driving                105.              NA
##  5 2020-01-14 00:00:00 Public Transport       104.              NA
##  6 2020-01-14 00:00:00 Walking                106.              NA
##  7 2020-01-15 00:00:00 Driving                106.              NA
##  8 2020-01-15 00:00:00 Public Transport       105.              NA
##  9 2020-01-15 00:00:00 Walking                114.              NA
## 10 2020-01-16 00:00:00 Driving                104.              NA
## #  with 299 more rows
…
