Week 3 – Visualizing tabular data with ggplot2
…
The METABRIC study characterized the genomic mutations and gene expression profiles for over 2000 primary breast tumours. In addition to the gene expression obtained using microarrays, genome-wide copy number profiles were obtained using SNP microarrays and targeted sequencing was performed using a panel of 40 driver-mutation genes.

Curtis et al., Nature 486:346-52, 2012

Pereira et al., Nature Communications 7:11479, 2016

Both the clinical data and the gene expression values were downloaded from cBioPortal.

These have been combined into a single table using techniques we will cover later in the course. We’ve removed observations for patient tumour samples for which expression data are not available and have replaced spaces in column names with underscores so we don’t have to constantly refer to these using backticks ( ` ).

library(tidyverse)
metabric <- read_csv("data/metabric_clinical_and_expression_data.csv")
metabric

## # A tibble: 1,904 x 30
##    Patient_ID Cohort Age_at_diagnosis Survival_time Survival_status
##    <chr>       <dbl>            <dbl>         <dbl> <chr>          
##  1 MB-0000         1             75.6         140.  LIVING         
##  2 MB-0002         1             43.2          84.6 LIVING         
##  3 MB-0005         1             48.9         164.  DECEASED       
##  4 MB-0006         1             47.7         165.  LIVING         
##  5 MB-0008         1             77.0          41.4 DECEASED       
##  6 MB-0010         1             78.8           7.8 DECEASED       
##  7 MB-0014         1             56.4         164.  LIVING         
##  8 MB-0022         1             89.1          99.5 DECEASED       
##  9 MB-0028         1             86.4          36.6 DECEASED       
## 10 MB-0035         1             84.2          36.3 DECEASED       
## # … with 1,894 more rows, and 25 more variables: Vital_status <chr>,
## #   Chemotherapy <chr>, Radiotherapy <chr>, Tumour_size <dbl>,
## #   Tumour_stage <dbl>, Neoplasm_histologic_grade <dbl>,
## #   Cancer_type <chr>, ER_status <chr>, PR_status <chr>,
## #   HER2_status <chr>, HER2_status_measured_by_SNP6 <chr>, PAM50 <chr>,
## #   `3_gene_classifier` <chr>, Nottingham_prognostic_index <dbl>,
## #   Cellularity <chr>, Integrative_cluster <chr>, Mutation_count <dbl>,
## #   ESR1 <dbl>, ERBB2 <dbl>, PGR <dbl>, TP53 <dbl>, PIK3CA <dbl>,
## #   GATA3 <dbl>, FOXA1 <dbl>, MLPH <dbl>
…
