Week 6 – Restructuring data for analysis
…
Real world example 1: METABRIC gene expression data

Although tables 1 to 4a and b contain real data they are of course ‘toy’ data sets created to be used for demonstration and teaching purposes. We’ll now turn our attention to the METABRIC expression data and see how this needs to be transformed into a tidier format to open up some exploratory paths.

We’ll first load the table and then select just the columns we’re going to need.

metabric <- read_csv("data/metabric_clinical_and_expression_data.csv") %>%
  select(Patient_ID, ER_status, ESR1:MLPH)
metabric

## # A tibble: 1,904 x 10
##    Patient_ID ER_status  ESR1 ERBB2   PGR  TP53 PIK3CA GATA3 FOXA1  MLPH
##    <chr>      <chr>     <dbl> <dbl> <dbl> <dbl>  <dbl> <dbl> <dbl> <dbl>
##  1 MB-0000    Positive   8.93  9.33  5.68  6.34   5.70  6.93  7.95  9.73
##  2 MB-0002    Positive  10.0   9.73  7.51  6.19   5.76 11.3  11.8  12.5 
##  3 MB-0005    Positive  10.0   9.73  7.38  6.40   6.75  9.29 11.7  10.3 
##  4 MB-0006    Positive  10.4  10.3   6.82  6.87   7.22  8.67 11.9  10.5 
##  5 MB-0008    Positive  11.3   9.96  7.33  6.34   5.82  9.72 11.6  12.2 
##  6 MB-0010    Positive  11.2   9.74  5.95  5.42   6.12  9.79 12.1  11.4 
##  7 MB-0014    Positive  10.8   9.28  7.72  5.99   7.48  8.37 11.5  10.8 
##  8 MB-0022    Positive  10.4   8.61  5.59  6.17   7.59  7.87 10.7   9.95
##  9 MB-0028    Positive  12.5  10.7   5.33  6.22   6.25 10.3  12.1  10.9 
## 10 MB-0035    Positive   7.54 11.5   5.59  6.41   5.99 10.2  12.8  13.5 
## # … with 1,894 more rows
…
Faceting requires a categorical variable which it uses to divide the data to be used in each plot. In this case, we’d need a gene column, but our data is in the wrong format.

We have gene names for column headings. Are these variables? Not really, they’re actually values for a variable that could be called gene or gene symbol. What we have is a “wide format” table.

Most gene expression matrices are in a similar form, although commonly there are rows for each gene and columns for each sample. It should be said that the gene expression matrix format is a very compact way of representing the data which could be a consideration when dealing with tens of thousands of genes and anywhere between a few tens of samples to a few thousand as in METABRIC.

Furthermore, there are lots of tools for working with gene expression matrices in their matrix format, including many packages in the Bioconductor project. Fortunately, as we’ve seen, pivot_longer() and pivot_wider() provide a convenient means of converting between tidy and matrix-like formats.

We’ll convert our table of ER status and gene expression data to the tidy format.

metabric <- pivot_longer(metabric, ESR1:MLPH, names_to = "Gene", values_to = "Expression")
metabric

## # A tibble: 15,232 x 4
##    Patient_ID ER_status Gene   Expression
##    <chr>      <chr>     <chr>       <dbl>
##  1 MB-0000    Positive  ESR1         8.93
##  2 MB-0000    Positive  ERBB2        9.33
##  3 MB-0000    Positive  PGR          5.68
##  4 MB-0000    Positive  TP53         6.34
##  5 MB-0000    Positive  PIK3CA       5.70
##  6 MB-0000    Positive  GATA3        6.93
##  7 MB-0000    Positive  FOXA1        7.95
##  8 MB-0000    Positive  MLPH         9.73
##  9 MB-0002    Positive  ESR1        10.0 
## 10 MB-0002    Positive  ERBB2        9.73
## # … with 15,222 more rows
…
