Week 4 – Data manipulation with dplyr
…
library(tidyverse)

dplyr is the Swiss army knife in the tidyverse, providing many useful functions for manipulating tabular data in data frames or tibble objects. We’re going to look at the key functions for filtering our data, modifying the contents and computing summary statistics.

We’ll also look at how we can chain operations together into mini workflows in a way that makes for more readable and maintainable code, introducing the pipe operator, %>%.

Finally, we’ll return to plotting and look at a powerful feature of ggplot2, faceting, that allows you to divide your plots into sub-plots by splitting the observations based on one or more categorical variables.

We’ll again use the METABRIC data set to illustrate how these operations work.

library(tidyverse)
metabric <- read_csv("data/metabric_clinical_and_expression_data.csv")
metabric

## # A tibble: 1,904 x 30
##    Patient_ID Cohort Age_at_diagnosis Survival_time Survival_status
##    <chr>       <dbl>            <dbl>         <dbl> <chr>          
##  1 MB-0000         1             75.6         140.  LIVING         
##  2 MB-0002         1             43.2          84.6 LIVING         
##  3 MB-0005         1             48.9         164.  DECEASED       
##  4 MB-0006         1             47.7         165.  LIVING         
##  5 MB-0008         1             77.0          41.4 DECEASED       
##  6 MB-0010         1             78.8           7.8 DECEASED       
##  7 MB-0014         1             56.4         164.  LIVING         
##  8 MB-0022         1             89.1          99.5 DECEASED       
##  9 MB-0028         1             86.4          36.6 DECEASED       
## 10 MB-0035         1             84.2          36.3 DECEASED       
## # … with 1,894 more rows, and 25 more variables: Vital_status <chr>,
## #   Chemotherapy <chr>, Radiotherapy <chr>, Tumour_size <dbl>,
## #   Tumour_stage <dbl>, Neoplasm_histologic_grade <dbl>,
## #   Cancer_type <chr>, ER_status <chr>, PR_status <chr>,
## #   HER2_status <chr>, HER2_status_measured_by_SNP6 <chr>, PAM50 <chr>,
## #   `3-gene_classifier` <chr>, Nottingham_prognostic_index <dbl>,
## #   Cellularity <chr>, Integrative_cluster <chr>, Mutation_count <dbl>,
## #   ESR1 <dbl>, ERBB2 <dbl>, PGR <dbl>, TP53 <dbl>, PIK3CA <dbl>,
## #   GATA3 <dbl>, FOXA1 <dbl>, MLPH <dbl>
…
Variable names, i.e. column names, are referred to without using quotes

The result of an operation is a new data frame

Filtering rows with filter()

The filter verb allows you to choose rows from a data frame that match some specified criteria. The criteria are based on values of variables and can make use of comparison operators such as ==, >, < and !=.

For example, to filter the METABRIC data set so that it only contains observations for those patients who died of breast cancer.

deceased <- filter(metabric, Vital_status == "Died of Disease")
deceased

## # A tibble: 622 x 30
##    Patient_ID Cohort Age_at_diagnosis Survival_time Survival_status
##    <chr>       <dbl>            <dbl>         <dbl> <chr>          
##  1 MB-0005         1             48.9        164.   DECEASED       
##  2 MB-0008         1             77.0         41.4  DECEASED       
##  3 MB-0010         1             78.8          7.8  DECEASED       
##  4 MB-0035         1             84.2         36.3  DECEASED       
##  5 MB-0036         1             85.5        132.   DECEASED       
##  6 MB-0079         1             50.4         28.5  DECEASED       
##  7 MB-0083         1             64.8         86.1  DECEASED       
##  8 MB-0100         1             68.7          8.07 DECEASED       
##  9 MB-0102         1             51.4        141.   DECEASED       
## 10 MB-0108         1             43.2         42.7  DECEASED       
## # … with 612 more rows, and 25 more variables: Vital_status <chr>,
## #   Chemotherapy <chr>, Radiotherapy <chr>, Tumour_size <dbl>,
## #   Tumour_stage <dbl>, Neoplasm_histologic_grade <dbl>,
## #   Cancer_type <chr>, ER_status <chr>, PR_status <chr>,
## #   HER2_status <chr>, HER2_status_measured_by_SNP6 <chr>, PAM50 <chr>,
## #   `3-gene_classifier` <chr>, Nottingham_prognostic_index <dbl>,
## #   Cellularity <chr>, Integrative_cluster <chr>, Mutation_count <dbl>,
## #   ESR1 <dbl>, ERBB2 <dbl>, PGR <dbl>, TP53 <dbl>, PIK3CA <dbl>,
## #   GATA3 <dbl>, FOXA1 <dbl>, MLPH <dbl>
…
Let’s have a look at the various categories in the Vital_status variable.

table(metabric$Vital_status)

## 
##      Died of Disease Died of Other Causes               Living 
##                  622                  480                  801

We could use the != comparison operator to select all deceased patients regardless of whether they died of the disease or other causes.

deceased <- filter(metabric, Vital_status != "Living")
deceased

## # A tibble: 1,102 x 30
##    Patient_ID Cohort Age_at_diagnosis Survival_time Survival_status
##    <chr>       <dbl>            <dbl>         <dbl> <chr>          
##  1 MB-0005         1             48.9         164.  DECEASED       
##  2 MB-0008         1             77.0          41.4 DECEASED       
##  3 MB-0010         1             78.8           7.8 DECEASED       
##  4 MB-0022         1             89.1          99.5 DECEASED       
##  5 MB-0028         1             86.4          36.6 DECEASED       
##  6 MB-0035         1             84.2          36.3 DECEASED       
##  7 MB-0036         1             85.5         132.  DECEASED       
##  8 MB-0046         1             83.0          14.1 DECEASED       
##  9 MB-0079         1             50.4          28.5 DECEASED       
## 10 MB-0083         1             64.8          86.1 DECEASED       
## # … with 1,092 more rows, and 25 more variables: Vital_status <chr>,
## #   Chemotherapy <chr>, Radiotherapy <chr>, Tumour_size <dbl>,
## #   Tumour_stage <dbl>, Neoplasm_histologic_grade <dbl>,
## #   Cancer_type <chr>, ER_status <chr>, PR_status <chr>,
## #   HER2_status <chr>, HER2_status_measured_by_SNP6 <chr>, PAM50 <chr>,
## #   `3-gene_classifier` <chr>, Nottingham_prognostic_index <dbl>,
## #   Cellularity <chr>, Integrative_cluster <chr>, Mutation_count <dbl>,
## #   ESR1 <dbl>, ERBB2 <dbl>, PGR <dbl>, TP53 <dbl>, PIK3CA <dbl>,
## #   GATA3 <dbl>, FOXA1 <dbl>, MLPH <dbl>

Another way of doing this is to specify which classes we are interested in and use the %in% operator to test which observations (rows) contain those values.

deceased <- filter(metabric, Vital_status %in% c("Died of Disease", "Died of Other Causes"))
deceased

## # A tibble: 1,102 x 30
##    Patient_ID Cohort Age_at_diagnosis Survival_time Survival_status
##    <chr>       <dbl>            <dbl>         <dbl> <chr>          
##  1 MB-0005         1             48.9         164.  DECEASED       
##  2 MB-0008         1             77.0          41.4 DECEASED       
##  3 MB-0010         1             78.8           7.8 DECEASED       
##  4 MB-0022         1             89.1          99.5 DECEASED       
##  5 MB-0028         1             86.4          36.6 DECEASED       
##  6 MB-0035         1             84.2          36.3 DECEASED       
##  7 MB-0036         1             85.5         132.  DECEASED       
##  8 MB-0046         1             83.0          14.1 DECEASED       
##  9 MB-0079         1             50.4          28.5 DECEASED       
## 10 MB-0083         1             64.8          86.1 DECEASED       
## # … with 1,092 more rows, and 25 more variables: Vital_status <chr>,
## #   Chemotherapy <chr>, Radiotherapy <chr>, Tumour_size <dbl>,
## #   Tumour_stage <dbl>, Neoplasm_histologic_grade <dbl>,
## #   Cancer_type <chr>, ER_status <chr>, PR_status <chr>,
## #   HER2_status <chr>, HER2_status_measured_by_SNP6 <chr>, PAM50 <chr>,
## #   `3-gene_classifier` <chr>, Nottingham_prognostic_index <dbl>,
## #   Cellularity <chr>, Integrative_cluster <chr>, Mutation_count <dbl>,
## #   ESR1 <dbl>, ERBB2 <dbl>, PGR <dbl>, TP53 <dbl>, PIK3CA <dbl>,
## #   GATA3 <dbl>, FOXA1 <dbl>, MLPH <dbl>

Another of the tidyverse packages, stringr, contains a set of very useful functions for operating on text or character strings. One such function, str_starts() could be used to find all vital status values that start with “Died”.

deceased <- filter(metabric, str_starts(Vital_status, "Died"))
deceased

## # A tibble: 1,102 x 30
##    Patient_ID Cohort Age_at_diagnosis Survival_time Survival_status
##    <chr>       <dbl>            <dbl>         <dbl> <chr>          
##  1 MB-0005         1             48.9         164.  DECEASED       
##  2 MB-0008         1             77.0          41.4 DECEASED       
##  3 MB-0010         1             78.8           7.8 DECEASED       
##  4 MB-0022         1             89.1          99.5 DECEASED       
##  5 MB-0028         1             86.4          36.6 DECEASED       
##  6 MB-0035         1             84.2          36.3 DECEASED       
##  7 MB-0036         1             85.5         132.  DECEASED       
##  8 MB-0046         1             83.0          14.1 DECEASED       
##  9 MB-0079         1             50.4          28.5 DECEASED       
## 10 MB-0083         1             64.8          86.1 DECEASED       
## # … with 1,092 more rows, and 25 more variables: Vital_status <chr>,
## #   Chemotherapy <chr>, Radiotherapy <chr>, Tumour_size <dbl>,
## #   Tumour_stage <dbl>, Neoplasm_histologic_grade <dbl>,
## #   Cancer_type <chr>, ER_status <chr>, PR_status <chr>,
## #   HER2_status <chr>, HER2_status_measured_by_SNP6 <chr>, PAM50 <chr>,
## #   `3-gene_classifier` <chr>, Nottingham_prognostic_index <dbl>,
## #   Cellularity <chr>, Integrative_cluster <chr>, Mutation_count <dbl>,
## #   ESR1 <dbl>, ERBB2 <dbl>, PGR <dbl>, TP53 <dbl>, PIK3CA <dbl>,
## #   GATA3 <dbl>, FOXA1 <dbl>, MLPH <dbl>

Note that str_starts() returns a logical vector - this is important since the criterion for filtering must evaluate to TRUE or FALSE values for each row.

str_detect() is another useful function that determines whether values match a regular expression. Regular expressions are a language for search patterns used very frequently in computer programming but beyond the scope of this course.

Filtering based on a logical variable is the most simple type of filtering of all. We don’t have a logical variable in our METABRIC data set so we’ll create one from the binary survival status variable.

metabric$Deceased <- metabric$Survival_status == "DECEASED"
filter(metabric, Deceased)

## # A tibble: 1,103 x 31
##    Patient_ID Cohort Age_at_diagnosis Survival_time Survival_status
##    <chr>       <dbl>            <dbl>         <dbl> <chr>          
##  1 MB-0005         1             48.9         164.  DECEASED       
##  2 MB-0008         1             77.0          41.4 DECEASED       
##  3 MB-0010         1             78.8           7.8 DECEASED       
##  4 MB-0022         1             89.1          99.5 DECEASED       
##  5 MB-0028         1             86.4          36.6 DECEASED       
##  6 MB-0035         1             84.2          36.3 DECEASED       
##  7 MB-0036         1             85.5         132.  DECEASED       
##  8 MB-0046         1             83.0          14.1 DECEASED       
##  9 MB-0079         1             50.4          28.5 DECEASED       
## 10 MB-0083         1             64.8          86.1 DECEASED       
## # … with 1,093 more rows, and 26 more variables: Vital_status <chr>,
## #   Chemotherapy <chr>, Radiotherapy <chr>, Tumour_size <dbl>,
## #   Tumour_stage <dbl>, Neoplasm_histologic_grade <dbl>,
## #   Cancer_type <chr>, ER_status <chr>, PR_status <chr>,
## #   HER2_status <chr>, HER2_status_measured_by_SNP6 <chr>, PAM50 <chr>,
## #   `3-gene_classifier` <chr>, Nottingham_prognostic_index <dbl>,
## #   Cellularity <chr>, Integrative_cluster <chr>, Mutation_count <dbl>,
## #   ESR1 <dbl>, ERBB2 <dbl>, PGR <dbl>, TP53 <dbl>, PIK3CA <dbl>,
## #   GATA3 <dbl>, FOXA1 <dbl>, MLPH <dbl>, Deceased <lgl>

We can use the ! operator to filter those patients who are not deceased.

filter(metabric, !Deceased)

## # A tibble: 801 x 31
##    Patient_ID Cohort Age_at_diagnosis Survival_time Survival_status
##    <chr>       <dbl>            <dbl>         <dbl> <chr>          
##  1 MB-0000         1             75.6         140.  LIVING         
##  2 MB-0002         1             43.2          84.6 LIVING         
##  3 MB-0006         1             47.7         165.  LIVING         
##  4 MB-0014         1             56.4         164.  LIVING         
##  5 MB-0039         1             70.9         164.  LIVING         
##  6 MB-0045         1             45.3         165.  LIVING         
##  7 MB-0048         1             51.5         104.  LIVING         
##  8 MB-0050         1             44.6          75.3 LIVING         
##  9 MB-0053         1             70.0         161.  LIVING         
## 10 MB-0054         1             66.9         160.  LIVING         
## # … with 791 more rows, and 26 more variables: Vital_status <chr>,
## #   Chemotherapy <chr>, Radiotherapy <chr>, Tumour_size <dbl>,
## #   Tumour_stage <dbl>, Neoplasm_histologic_grade <dbl>,
## #   Cancer_type <chr>, ER_status <chr>, PR_status <chr>,
## #   HER2_status <chr>, HER2_status_measured_by_SNP6 <chr>, PAM50 <chr>,
## #   `3-gene_classifier` <chr>, Nottingham_prognostic_index <dbl>,
## #   Cellularity <chr>, Integrative_cluster <chr>, Mutation_count <dbl>,
## #   ESR1 <dbl>, ERBB2 <dbl>, PGR <dbl>, TP53 <dbl>, PIK3CA <dbl>,
## #   GATA3 <dbl>, FOXA1 <dbl>, MLPH <dbl>, Deceased <lgl>
…
filter() only retains rows where the condition if TRUE; both FALSE and NA values are filtered out.

We can apply include more than one condition in our filtering operation, for example the patients who were still alive at the time of the METABRIC study and had survived for more than 10 years (120 months).

filter(metabric, Survival_status == "LIVING", Survival_time > 120)

## # A tibble: 545 x 31
##    Patient_ID Cohort Age_at_diagnosis Survival_time Survival_status
##    <chr>       <dbl>            <dbl>         <dbl> <chr>          
##  1 MB-0000         1             75.6          140. LIVING         
##  2 MB-0006         1             47.7          165. LIVING         
##  3 MB-0014         1             56.4          164. LIVING         
##  4 MB-0039         1             70.9          164. LIVING         
##  5 MB-0045         1             45.3          165. LIVING         
##  6 MB-0053         1             70.0          161. LIVING         
##  7 MB-0054         1             66.9          160. LIVING         
##  8 MB-0060         1             45.4          141. LIVING         
##  9 MB-0062         1             52.1          154. LIVING         
## 10 MB-0066         1             61.5          157. LIVING         
## # … with 535 more rows, and 26 more variables: Vital_status <chr>,
## #   Chemotherapy <chr>, Radiotherapy <chr>, Tumour_size <dbl>,
## #   Tumour_stage <dbl>, Neoplasm_histologic_grade <dbl>,
## #   Cancer_type <chr>, ER_status <chr>, PR_status <chr>,
## #   HER2_status <chr>, HER2_status_measured_by_SNP6 <chr>, PAM50 <chr>,
## #   `3-gene_classifier` <chr>, Nottingham_prognostic_index <dbl>,
## #   Cellularity <chr>, Integrative_cluster <chr>, Mutation_count <dbl>,
## #   ESR1 <dbl>, ERBB2 <dbl>, PGR <dbl>, TP53 <dbl>, PIK3CA <dbl>,
## #   GATA3 <dbl>, FOXA1 <dbl>, MLPH <dbl>, Deceased <lgl>

The equivalent using R’s usual subsetting looks much less readable.

metabric[metabric$Survival_status == "LIVING" & metabric$Survival_time > 120, ]

## # A tibble: 545 x 31
##    Patient_ID Cohort Age_at_diagnosis Survival_time Survival_status
##    <chr>       <dbl>            <dbl>         <dbl> <chr>          
##  1 MB-0000         1             75.6          140. LIVING         
##  2 MB-0006         1             47.7          165. LIVING         
##  3 MB-0014         1             56.4          164. LIVING         
##  4 MB-0039         1             70.9          164. LIVING         
##  5 MB-0045         1             45.3          165. LIVING         
##  6 MB-0053         1             70.0          161. LIVING         
##  7 MB-0054         1             66.9          160. LIVING         
##  8 MB-0060         1             45.4          141. LIVING         
##  9 MB-0062         1             52.1          154. LIVING         
## 10 MB-0066         1             61.5          157. LIVING         
## # … with 535 more rows, and 26 more variables: Vital_status <chr>,
## #   Chemotherapy <chr>, Radiotherapy <chr>, Tumour_size <dbl>,
## #   Tumour_stage <dbl>, Neoplasm_histologic_grade <dbl>,
## #   Cancer_type <chr>, ER_status <chr>, PR_status <chr>,
## #   HER2_status <chr>, HER2_status_measured_by_SNP6 <chr>, PAM50 <chr>,
## #   `3-gene_classifier` <chr>, Nottingham_prognostic_index <dbl>,
## #   Cellularity <chr>, Integrative_cluster <chr>, Mutation_count <dbl>,
## #   ESR1 <dbl>, ERBB2 <dbl>, PGR <dbl>, TP53 <dbl>, PIK3CA <dbl>,
## #   GATA3 <dbl>, FOXA1 <dbl>, MLPH <dbl>, Deceased <lgl>

We can add as many conditions as we like separating each with a comma. Note that filtering using R subsetting gets more unreadable the more conditions you add.

Adding conditions in this way is equivalent to combining the conditions using the & (Boolean AND) operator.

# filter(metabric, Survival_status == "LIVING", Survival_time > 120)
# is equivalent to
filter(metabric, Survival_status == "LIVING" & Survival_time > 120)

## # A tibble: 545 x 31
##    Patient_ID Cohort Age_at_diagnosis Survival_time Survival_status
##    <chr>       <dbl>            <dbl>         <dbl> <chr>          
##  1 MB-0000         1             75.6          140. LIVING         
##  2 MB-0006         1             47.7          165. LIVING         
##  3 MB-0014         1             56.4          164. LIVING         
##  4 MB-0039         1             70.9          164. LIVING         
##  5 MB-0045         1             45.3          165. LIVING         
##  6 MB-0053         1             70.0          161. LIVING         
##  7 MB-0054         1             66.9          160. LIVING         
##  8 MB-0060         1             45.4          141. LIVING         
##  9 MB-0062         1             52.1          154. LIVING         
## 10 MB-0066         1             61.5          157. LIVING         
## # … with 535 more rows, and 26 more variables: Vital_status <chr>,
## #   Chemotherapy <chr>, Radiotherapy <chr>, Tumour_size <dbl>,
## #   Tumour_stage <dbl>, Neoplasm_histologic_grade <dbl>,
## #   Cancer_type <chr>, ER_status <chr>, PR_status <chr>,
## #   HER2_status <chr>, HER2_status_measured_by_SNP6 <chr>, PAM50 <chr>,
## #   `3-gene_classifier` <chr>, Nottingham_prognostic_index <dbl>,
## #   Cellularity <chr>, Integrative_cluster <chr>, Mutation_count <dbl>,
## #   ESR1 <dbl>, ERBB2 <dbl>, PGR <dbl>, TP53 <dbl>, PIK3CA <dbl>,
## #   GATA3 <dbl>, FOXA1 <dbl>, MLPH <dbl>, Deceased <lgl>
…
