Week 2 – Working with data in R
…
Because tibbles are data frames, almost everything we learned about data frames, including subsetting, also applies to tibbles.

Tibbles vs data frames

So let’s now have a look at what capabilities and behaviours these additional types confer and what the main differences are between tibbles and data frames.

Printing

If you typed iris at the command prompt to list its contents it will have printed all 150 lines. At times this can feel a bit unwieldy, as we may just want a quick look at the first few rows to get an idea of what our data frame looks like. Hence the need for the head() function.

Tibbles print in a much more user-friendly way. Only the first 10 rows are displayed and only as many columns as can fit comfortably on the screen. This is best demonstrated with a table with many columns such as the starwars table we came across earlier. starwars is in fact one of those hidden data sets but it is part of the dplyr package so can only be accessed if you load dplyr using library(dplyr) or as part of loading the tidyverse collection of packages using library(tidyverse).

starwars

## # A tibble: 87 x 13
##    name  height  mass hair_color skin_color eye_color birth_year gender
##    <chr>  <int> <dbl> <chr>      <chr>      <chr>          <dbl> <chr> 
##  1 Luke…    172    77 blond      fair       blue            19   male  
##  2 C-3PO    167    75 <NA>       gold       yellow         112   <NA>  
##  3 R2-D2     96    32 <NA>       white, bl… red             33   <NA>  
##  4 Dart…    202   136 none       white      yellow          41.9 male  
##  5 Leia…    150    49 brown      light      brown           19   female
##  6 Owen…    178   120 brown, gr… light      blue            52   male  
##  7 Beru…    165    75 brown      light      blue            47   female
##  8 R5-D4     97    32 <NA>       white, red red             NA   <NA>  
##  9 Bigg…    183    84 black      light      brown           24   male  
## 10 Obi-…    182    77 auburn, w… fair       blue-gray       57   male  
## # … with 77 more rows, and 5 more variables: homeworld <chr>,
## #   species <chr>, films <list>, vehicles <list>, starships <list>
…
It’s another example of tibbles not trying to be too clever but instead favouring a more consistent set of expectations for their behaviour. There are good reasons for this. Many of the most powerful operations in the tidyverse work on data frames and we shall see in future weeks how these operations can be ‘chained’ together to form workflows in a very elegant fashion. This would not be possible if the return value from any one of the steps in the workflow returned a vector or table depending on whether it could be a vector. But that’s getting ahead of ourselves, so let’s park it there for now.

Row names

The final difference we’ll briefly note here is that setting row names on tibbles is allowed but deprecated (and future versions of the tidyverse may not allow you to set row names at all). If you try to set row names on a tibble you will get a warning message about this and if you convert a data frame such as mtcars with meaningful row names then these get removed and you end up with character version of row numbers much like we saw for the iris data set.

as_tibble(mtcars)

## # A tibble: 32 x 12
##      mpg   cyl  disp    hp  drat    wt  qsec    vs    am  gear  carb   kpl
##    <dbl> <dbl> <dbl> <dbl> <dbl> <dbl> <dbl> <dbl> <dbl> <dbl> <dbl> <dbl>
##  1  21       6  160    110  3.9   2.62  16.5     0     1     6     4  8.93
##  2  21       6  160    110  3.9   2.88  17.0     0     1     4     4  8.93
##  3  22.8     4  108     93  3.85  2.32  18.6     1     1     4     1  9.69
##  4  21.4     6  258    110  3.08  3.22  19.4     1     0     6     1  9.10
##  5  18.7     8  360    175  3.15  3.44  17.0     0     0     6     2  7.95
##  6  18.1     6  225    105  2.76  3.46  20.2     1     0     3     1  7.70
##  7  14.3     8  360    245  3.21  3.57  15.8     0     0     3     4  6.08
##  8  24.4     4  147.    62  3.69  3.19  20       1     0     4     2 10.4 
##  9  22.8     4  141.    95  3.92  3.15  22.9     1     0     4     2  9.69
## 10  19.2     6  168.   123  3.92  3.44  18.3     1     0     4     4  8.16
## # … with 22 more rows

Being able to access data through row name identifiers might seem like a very useful thing but in most cases this information would be better included in a separate column where you can apply exactly the same filtering and faceting operations as you can for any other column or variable.

The tibble package does provide a useful way of converting row names into a column, so we can recover those car models on converting mtcars into a tibble.

as_tibble(rownames_to_column(mtcars, var = "model"))

## # A tibble: 32 x 13
##    model    mpg   cyl  disp    hp  drat    wt  qsec    vs    am  gear  carb
##    <chr>  <dbl> <dbl> <dbl> <dbl> <dbl> <dbl> <dbl> <dbl> <dbl> <dbl> <dbl>
##  1 Mazda…  21       6  160    110  3.9   2.62  16.5     0     1     6     4
##  2 Mazda…  21       6  160    110  3.9   2.88  17.0     0     1     4     4
##  3 Datsu…  22.8     4  108     93  3.85  2.32  18.6     1     1     4     1
##  4 Horne…  21.4     6  258    110  3.08  3.22  19.4     1     0     6     1
##  5 Horne…  18.7     8  360    175  3.15  3.44  17.0     0     0     6     2
##  6 Valia…  18.1     6  225    105  2.76  3.46  20.2     1     0     3     1
##  7 Duste…  14.3     8  360    245  3.21  3.57  15.8     0     0     3     4
##  8 Merc …  24.4     4  147.    62  3.69  3.19  20       1     0     4     2
##  9 Merc …  22.8     4  141.    95  3.92  3.15  22.9     1     0     4     2
## 10 Merc …  19.2     6  168.   123  3.92  3.44  18.3     1     0     4     4
## # … with 22 more rows, and 1 more variable: kpl <dbl>
…
## See spec(...) for full column specifications.

read_tsv() prints a message telling us which types it has assigned to each of the columns it has read, although in this case the table has quite a lot of columns and it only outputs details about the first few.

If we print the clinical data set we can see that read_tsv() created a tibble.

metabric

## # A tibble: 2,509 x 20
##    `Patient ID` `Sample ID` `Cancer Type` `Cancer Type De… `Mutation Count`
##    <chr>        <chr>       <chr>         <chr>                       <dbl>
##  1 MB-0000      MB-0000     Breast Cancer Breast Invasive…               NA
##  2 MB-0002      MB-0002     Breast Cancer Breast Invasive…                2
##  3 MB-0005      MB-0005     Breast Cancer Breast Invasive…                2
##  4 MB-0006      MB-0006     Breast Cancer Breast Mixed Du…                1
##  5 MB-0008      MB-0008     Breast Cancer Breast Mixed Du…                2
##  6 MB-0010      MB-0010     Breast Cancer Breast Invasive…                4
##  7 MB-0014      MB-0014     Breast Cancer Breast Invasive…                4
##  8 MB-0020      MB-0020     Breast Cancer Breast Invasive…               NA
##  9 MB-0022      MB-0022     Breast Cancer Breast Mixed Du…                1
## 10 MB-0025      MB-0025     Breast Cancer Breast Invasive…                5
## # … with 2,499 more rows, and 15 more variables: `3-Gene classifier
## #   subtype` <chr>, `Age at Diagnosis` <dbl>, Cellularity <chr>,
## #   Chemotherapy <chr>, Cohort <dbl>, `ER Status` <chr>, `ER status
## #   measured by IHC` <chr>, `HER2 Status` <chr>, `HER2 status measured by
## #   SNP6` <chr>, `Hormone Therapy` <chr>, `Inferred Menopausal
## #   State` <chr>, `Integrative Cluster` <chr>, `Lymph nodes examined
## #   positive` <dbl>, `Neoplasm Histologic Grade` <dbl>, `Nottingham
## #   prognostic index` <dbl>
…
