Week 5 – Grouping and combining data
…
In this session, we’ll look at some more useful functions provided by the dplyr package, the ‘workhorse’ in the tidyverse family for manipulating tabular data. Continuing from last week, we’ll see how we can summarise data for groups of observations within different categories. We’ll also show how dplyr allows us to combine data for the same observational unit, e.g. person or date, that comes from different sources and is read into R in different tables.

We’ll also look at how to customize the plots we create using ggplot2, in particular how we can add or change titles and labels, how we can adjust the way the axes are displayed and how we can use a colour scheme of our choosing.

dplyr and ggplot2 are core component packages within the tidyverse and both get loaded as part of the tidyverse.

library(tidyverse)

To demonstrate how these grouping and combining functions work and to illustrate customization of plots, we’ll again use the METABRIC data set.

metabric <- read_csv("data/metabric_clinical_and_expression_data.csv")
metabric

## # A tibble: 1,904 x 32
##    Patient_ID Cohort Age_at_diagnosis Survival_time Survival_status
##    <chr>       <dbl>            <dbl>         <dbl> <chr>          
##  1 MB-0000         1             75.6         140.  LIVING         
##  2 MB-0002         1             43.2          84.6 LIVING         
##  3 MB-0005         1             48.9         164.  DECEASED       
##  4 MB-0006         1             47.7         165.  LIVING         
##  5 MB-0008         1             77.0          41.4 DECEASED       
##  6 MB-0010         1             78.8           7.8 DECEASED       
##  7 MB-0014         1             56.4         164.  LIVING         
##  8 MB-0022         1             89.1          99.5 DECEASED       
##  9 MB-0028         1             86.4          36.6 DECEASED       
## 10 MB-0035         1             84.2          36.3 DECEASED       
## # … with 1,894 more rows, and 27 more variables: Vital_status <chr>,
## #   Chemotherapy <chr>, Radiotherapy <chr>, Tumour_size <dbl>,
## #   Tumour_stage <dbl>, Neoplasm_histologic_grade <dbl>,
## #   Lymph_nodes_examined_positive <dbl>, Lymph_node_status <dbl>,
## #   Cancer_type <chr>, ER_status <chr>, PR_status <chr>,
## #   HER2_status <chr>, HER2_status_measured_by_SNP6 <chr>, PAM50 <chr>,
## #   `3-gene_classifier` <chr>, Nottingham_prognostic_index <dbl>,
## #   Cellularity <chr>, Integrative_cluster <chr>, Mutation_count <dbl>,
## #   ESR1 <dbl>, ERBB2 <dbl>, PGR <dbl>, TP53 <dbl>, PIK3CA <dbl>,
…
## # A tibble: 2 x 4
##   ER_status     N N_long_survival Proportion_long_survival
##   <chr>     <int>           <int>                    <dbl>
## 1 Negative    250              40                    0.16 
## 2 Positive    853             325                    0.381

Selecting distinct things

There are occassion where we want to count the number of distinct values in a variable or a combination of variables. In this week’s assignment, we introduce another set of data from the METABRIC study which contains details of the mutations detected from targeted sequencing of a panel of 173 genes. We’ll read this data into R now as this provides a good example of having multiple observations on different rows for a single observational unit, in this case several mutations found in each tumour sample.

mutations <- read_csv("data/metabric_mutations.csv")
select(mutations, Patient_ID, Chromosome, Position = Start_Position, Ref = Reference_Allele, Alt = Tumor_Seq_Allele1, Type = Variant_Type, Gene)

## # A tibble: 17,272 x 7
##    Patient_ID Chromosome  Position Ref   Alt   Type  Gene 
##    <chr>      <chr>          <dbl> <chr> <chr> <chr> <chr>
##  1 MTS-T0058  17           7579344 <NA>  <NA>  INS   TP53 
##  2 MTS-T0058  17           7579346 <NA>  <NA>  INS   TP53 
##  3 MTS-T0058  6          168299111 G     G     SNP   MLLT4
##  4 MTS-T0058  22          29999995 G     G     SNP   NF2  
##  5 MTS-T0059  2          198288682 A     A     SNP   SF3B1
##  6 MTS-T0059  6           86195125 T     T     SNP   NT5E 
##  7 MTS-T0059  7           55241717 C     C     SNP   EGFR 
##  8 MTS-T0059  10           6556986 C     C     SNP   PRKCQ
##  9 MTS-T0059  11          62300529 T     T     SNP   AHNAK
## 10 MTS-T0059  15          74912475 G     G     SNP   CLK3 
## # … with 17,262 more rows
…
If we want to count the number of patients in which mutations were detected we could select the distinct set of patient identifiers using the distinct() function.

mutations %>%
  distinct(Patient_ID) %>%
  nrow()

## [1] 2369

Similarly, we could select the distinct set of mutated genes for each patient as follows.

mutations %>%
  distinct(Patient_ID, Gene)

## # A tibble: 15,656 x 2
##    Patient_ID Gene 
##    <chr>      <chr>
##  1 MTS-T0058  TP53 
##  2 MTS-T0058  MLLT4
##  3 MTS-T0058  NF2  
##  4 MTS-T0059  SF3B1
##  5 MTS-T0059  NT5E 
##  6 MTS-T0059  EGFR 
##  7 MTS-T0059  PRKCQ
##  8 MTS-T0059  AHNAK
##  9 MTS-T0059  CLK3 
## 10 MTS-T0059  TP53 
## # … with 15,646 more rows

This has reduced the number of rows as only distinct combinations of patient and gene are retained. This would be necessary if we wanted to count the number patients that have mutations in each gene rather than the number of mutations for that gene regardless of the patient.

# number of mutations for each gene
count(mutations, Gene)

## # A tibble: 173 x 2
##    Gene       n
##    <chr>  <int>
##  1 ACVRL1    20
##  2 AFF2      70
##  3 AGMO      43
##  4 AGTR2     14
##  5 AHNAK    327
##  6 AHNAK2   859
##  7 AKAP9    182
##  8 AKT1     115
##  9 AKT2      23
## 10 ALK       98
## # … with 163 more rows

# number of tumour samples in which each gene is mutated
mutations %>%
  distinct(Patient_ID, Gene) %>%
  count(Gene)

## # A tibble: 173 x 2
##    Gene       n
##    <chr>  <int>
##  1 ACVRL1    20
##  2 AFF2      69
##  3 AGMO      43
##  4 AGTR2     14
##  5 AHNAK    272
##  6 AHNAK2   530
##  7 AKAP9    173
##  8 AKT1     115
##  9 AKT2      23
## 10 ALK       95
## # … with 163 more rows
…
